Event	ID	Name			Wwise Object Path	Notes
	312278408	Skill_101201			\Default Work Unit\Hero\1012\Skill\Skill_101201	
	312278410	Skill_101203			\Default Work Unit\Hero\1012\Skill\Skill_101203	
	312278411	Skill_101202			\Default Work Unit\Hero\1012\Skill\Skill_101202	
	312278412	Skill_101205			\Default Work Unit\Hero\1012\Skill\Skill_101205	
	312278413	Skill_101204			\Default Work Unit\Hero\1012\Skill\Skill_101204	
	312278415	Skill_101206			\Default Work Unit\Hero\1012\Skill\Skill_101206	
	1385588485	Born_1012			\Default Work Unit\Hero\1012\Voice\Born_1012	
	2689703727	Leisure_1012			\Default Work Unit\Hero\1012\Voice\Leisure_1012	

In Memory Audio	ID	Name	Audio source file		Wwise Object Path	Notes	Data Size
	14399224	sc_arder1	N:\Publish_Android2\ZhuqueWwise\.cache\Android\SFX\sc_arder1_E843A46D.wem		\Actor-Mixer Hierarchy\Default Work Unit\Hero\1012\Voice\Leisure\sc_arder1		35145
	35131271	101205	N:\Publish_Android2\ZhuqueWwise\.cache\Android\SFX\101205_E843A46D.wem		\Actor-Mixer Hierarchy\Default Work Unit\Hero\1012\Skill\101205		18078
	256851027	101204	N:\Publish_Android2\ZhuqueWwise\.cache\Android\SFX\101204_E843A46D.wem		\Actor-Mixer Hierarchy\Default Work Unit\Hero\1012\Skill\101204		16892
	477943649	101201	N:\Publish_Android2\ZhuqueWwise\.cache\Android\SFX\101201_E843A46D.wem		\Actor-Mixer Hierarchy\Default Work Unit\Hero\1012\Skill\101201		7038
	567805964	101206	N:\Publish_Android2\ZhuqueWwise\.cache\Android\SFX\101206_E843A46D.wem		\Actor-Mixer Hierarchy\Default Work Unit\Hero\1012\Skill\101206		16558
	694622145	101203	N:\Publish_Android2\ZhuqueWwise\.cache\Android\SFX\101203_E843A46D.wem		\Actor-Mixer Hierarchy\Default Work Unit\Hero\1012\Skill\101203		54886
	714599206	sc_arder4	N:\Publish_Android2\ZhuqueWwise\.cache\Android\SFX\sc_arder4_E843A46D.wem		\Actor-Mixer Hierarchy\Default Work Unit\Hero\1012\Voice\Leisure\sc_arder4		23419
	752454525	101202	N:\Publish_Android2\ZhuqueWwise\.cache\Android\SFX\101202_E843A46D.wem		\Actor-Mixer Hierarchy\Default Work Unit\Hero\1012\Skill\101202		7209
	955693212	Born	N:\Publish_Android2\ZhuqueWwise\.cache\Android\SFX\sc_born_E843A46D.wem		\Actor-Mixer Hierarchy\Default Work Unit\Hero\1012\Voice\Born		32910
	977837359	sc_arder3	N:\Publish_Android2\ZhuqueWwise\.cache\Android\SFX\sc_arder3_E843A46D.wem		\Actor-Mixer Hierarchy\Default Work Unit\Hero\1012\Voice\Leisure\sc_arder3		40721
	1015141688	sc_arder2	N:\Publish_Android2\ZhuqueWwise\.cache\Android\SFX\sc_arder2_E843A46D.wem		\Actor-Mixer Hierarchy\Default Work Unit\Hero\1012\Voice\Leisure\sc_arder2		34722

